
{
    "DevID"                         : "0xDB01",
    "Class"                         : "Датчик",
    "Description"                   : "температуры",
    "maxSimulateneousCellsToRead"   : 11,
    "HoldingRegisters"  :
        [
        {
            "Address"       : "0x0000",
            "ValueType"     : "uint16_t",
            "Access"        : "ReadOnly",
            "Name"          : "Идентификатор",
            "Category"      : "Настройка"
        },
        {
            "Address"       : "0x0001",
            "ValueType"     : "uint16_t",
            "Access"        : "ReadOnly",
            "Name"          : "Серийный номер",
            "Category"      : "Настройка"
        },
        {
            "Address"       : "0x0002",
            "ValueType"     : "float",
            "Access"        : "ReadOnly",
            "Name"          : "Опорная частота",
            "Category"      : "Коэффициенты",
            "Description"   : "[Гц]"
        },
        {
            "Address"       : "0x0010",
            "ValueType"     : "uint16_t",
            "Access"        : "ReadWrite",
            "Name"          : "Адрес",
            "Category"      : "Настройка",
            "MinValue"      : 1,
            "MaxValue"      : 247,
            "Description"   : "устройства ModBus, в диапазоне 1..247"
        },
        {
            "Address"       : "0x0011",
            "ValueType"     : "uint16_t",
            "Access"        : "ReadWrite",
            "Name"          : "Скорость обмена",
            "Category"      : "Настройка",
            "variants"      : [ 2400, 9600, 19200, 38400, 57600 ],
            "variantsAdvanced" : [
                { "Display" : 115200,
                    "value"   : "0xffff"
                }
            ],
            "Description"   : "[бод]"
        },
        {
            "Address"       : "0x0015",
            "ValueType"     : "uint16_t",
            "Access"        : "ReadWrite",
            "Name"          : "Время измерения температуры",
            "Category"      : "Коэффициенты",
            "Description"   : "[мс]"
        },
        {
            "Address"       : "0x0030",
            "ValueType"     : "float",
            "Access"        : "ReadOnly",
            "Name"          : "T0",
            "Category"      : "Коэффициенты"
        },
        {
            "Address"       : "0x0032",
            "ValueType"     : "float",
            "Access"        : "ReadOnly",
            "Name"          : "C1",
            "Category"      : "Коэффициенты"
        },
        {
            "Address"       : "0x0034",
            "ValueType"     : "float",
            "Access"        : "ReadOnly",
            "Name"          : "C2",
            "Category"      : "Коэффициенты"
        },
        {
            "Address"       : "0x0036",
            "ValueType"     : "float",
            "Access"        : "ReadOnly",
            "Name"          : "C3",
            "Category"      : "Коэффициенты"
        },
        {
            "Address"       : "0x0038",
            "ValueType"     : "float",
            "Access"        : "ReadOnly",
            "Name"          : "F0",
            "Category"      : "Коэффициенты"
        },
        {
            "Address"       : "0x0032",
            "ValueType"     : "float",
            "Access"        : "ReadOnly",
            "Name"          : "Kan",
            "Category"      : "Коэффициенты"
        }
    ],
    "InputRegisters"    :
        [
        {
            "Address"       : "0x0002",
            "ValueType"     : "float",
            "Name"          : "Температура",
            "Category"      : "Измеренные значения"
        },
        {
            "Address"       : "0x0004",
            "ValueType"     : "float",
            "Name"          : "Температура электроники",
            "Category"      : "Измеренные значения"
        }
    ],
    "Coils"             :
        [
        {
            "Address"       : "0x0000",
            "Access"        : "ReadOnly",
            "Name"          : "Резервный запуск",
            "Category"      : "Настройка",
            "Description"   : "В резервном запуске (при переполюсовке питания) загружаются начальные настройки"
        },
        {
            "Address"       : "0x0003",
            "Access"        : "ReadWrite",
            "Name"          : "Подключение канала температуры",
            "Category"      : "Настройка"
        },
        {
            "Address"       : "0x0008",
            "Access"        : "ReadWrite",
            "Name"          : "Запись настроек",
            "Category"      : "Hiden",
            "Serializable"  : false
        },
        {
            "Address"       : "0x0009",
            "Access"        : "ReadWrite",
            "Name"          : "Изменение настроек",
            "Category"      : "Hiden",
            "Serializable"  : false
        },
        {
            "Address"       : "0x000B",
            "Access"        : "ReadWrite",
            "Name"          : "Режим непрерывной выдачи данных",
            "Category"      : "Hiden"
        },
        {
            "Address"       : "0x000C",
            "Access"        : "ReadWrite",
            "Name"          : "Режим энергосбережения",
            "Category"      : "Настройка"
        }
    ],
    "DiscreteInputs"    :
        [
        {
            "Address"       : "0x0001",
            "Name"          : "Неисправность канала температуры",
            "Category"      : "Флаги ошибок"
        },
        {
            "Address"       : "0x0002",
            "Name"          : "Критическая температура датчика",
            "Category"      : "Флаги ошибок"
        },
        {
            "Address"       : "0x0003",
            "Name"          : "Критическая температура электроники",
            "Category"      : "Флаги ошибок"
        },
        {
            "Address"       : "0x0005",
            "Name"          : "Неверные настройки датчика температуры",
            "Category"      : "Флаги ошибок"
        }
    ]
}